6 209 130 Lung Yan C
33 177 130 Acoba Dennis
31 182 101 Uemura Nozomu
5 209 127 Yamamoto L
44 202 127 Kinoshita Shigeharu
59 195 145 Omuro Kenji
42 199 112 Higashi Tatsuo
40 204 117 Togashi Steven T
53 203 123 Higaki Craig A
30 199 107 Saito Delbert Y
9 177 142 Wong Sau H
50 205 127 Yamamoto Kamaka
29 192 143 Kitaoka Noboru
66 209 178 Oshiro Kenneth
7 187 105 Zerial J
24 249 122 Yamaguchi Etsuko
49 207 112 Tomono S
45 190 100 Yamamoto Sadao
62 183 108 Imoto Roger H
35 200 107 Yugawa Takeshi
19 204 122 Zimbra Mavel
8 200 102 Sakamoto Paul S
22 173 124 Onishi Masao
56 224 108 Yumoto Sanae
1 179 132 Yamamoto Kanichi
55 185 109 Kishimoto Donn
15 182 146 Inouye T
26 172 122 Nikaido Kerwin
47 186 117 Yamagata Edmund
4 192 135 Yamamoto A
64 208 136 Oshiro S R
17 185 101 Yamada L
28 183 140 Wong Deen L
46 192 131 Tomono Wallace
36 193 143 Higa Seiki
12 170 103 Wung Leslie
37 172 120 Ikeda David
43 182 111 Yamaoka Kiyoshi
11 194 118 Yamada Roy
52 194 102 Sakoda T
16 196 100 Yamane Masato
32 209 103 Imai Derrik
54 192 117 Nihau Harry
34 207 134 Imamoto Robert
57 205 132 Higa Robert K
41 250 105 Yahiku Jerry
10 199 121 Acoba P
51 204 104 Sakai Isami
2 187 135 Higashi Gary I
20 175 129 Yamada Haruo
48 196 101 Toko Alston
14 203 102 Ushijima Else
61 207 115 Kishi W
65 191 106 Ono Rodney N
63 192 119 Niimi Elroy S
60 210 119 Yagi Jeanne E
38 201 138 Yamamoto L T
58 207 144 Yamanaka Keith
21 170 143 Sakoda Spencer J
18 205 121 Nirei H
13 177 146 Tomoguchi E S
39 180 143 Sakamoto Sadao
23 184 103 Yamamoto William
27 186 112 Inaba James
25 208 142 Wong Shun K
3 195 150 Imamura Tsuyoki
